<svg width="111" height="112" viewBox="0 0 111 112" fill="none" xmlns="http://www.w3.org/2000/svg">
<circle cx="55.4054" cy="56.1036" r="53.6554" stroke="#D1C9D8" stroke-width="3.5"/>
<path d="M80.6783 68.106H47.7796V41.3011C49.7524 40.6063 50.7884 38.4436 50.0934 36.4708C49.5588 34.9531 48.1234 33.9389 46.5142 33.9419H21.2075C19.1159 33.9379 17.417 35.6303 17.4131 37.7219C17.4101 39.3311 18.4243 40.7665 19.942 41.3011V71.902C19.942 73.9985 21.6415 75.698 23.738 75.698H27.534V87.086C27.541 93.3725 32.6356 98.467 38.9221 98.474V107.208C38.9221 107.906 39.4886 108.473 40.1874 108.473L62.9634 108.344C63.6622 108.344 64.2288 107.777 64.2288 107.078V98.4095C75.5852 97.7358 84.4553 88.3396 84.4741 76.9633V75.698H85.7395C86.4383 75.698 87.0048 75.1314 87.0048 74.4326C87.0007 70.9403 84.1706 68.1101 80.6783 68.106ZM19.9422 37.7379C19.9422 37.0391 20.5087 36.4726 21.2075 36.4726H46.5142C47.213 36.4726 47.7796 37.0391 47.7796 37.7379C47.7796 38.4367 47.213 39.0032 46.5142 39.0032H21.2075C20.5086 39.0032 19.9422 38.4367 19.9422 37.7379ZM23.7382 73.1673C23.0394 73.1673 22.4729 72.6007 22.4729 71.902V41.5339H45.2489V73.1673H23.7382ZM61.6983 107.331L61.3146 107.461C54.9251 109.619 48.0963 110.141 41.4529 108.979V108.979V98.474H61.6983V107.331ZM81.9436 76.9633C81.9318 87.4408 73.441 95.9315 62.9636 95.9433H38.9222C34.0331 95.937 30.0712 91.9751 30.0649 87.086V75.698H81.9436V76.9633ZM47.7796 73.1673V70.6366H80.6783C82.2865 70.6385 83.7197 71.6517 84.2579 73.1673H47.7796Z" fill="#D1C9D8" stroke="#D1C9D8" stroke-width="0.3"/>
<path d="M74.9193 34.1318C73.5886 34.5078 72.1044 34.2765 70.9395 33.3561C69.9762 32.5962 69.4137 31.5173 69.2819 30.3881C69.2542 30.1515 69.2572 29.9114 69.2676 29.6718C68.6597 29.4927 68.0877 29.2049 67.589 28.8115C66.5479 27.9914 65.8882 26.8121 65.7345 25.4957C65.5808 24.1793 65.9513 22.8797 66.7754 21.8404L67.9813 20.3197C68.8067 19.2789 69.9893 18.6201 71.309 18.466C72.6288 18.312 73.9314 18.6807 74.971 19.5009C75.4712 19.8942 75.8837 20.383 76.1985 20.9318C77.5292 20.5558 79.0135 20.7886 80.1783 21.7075C81.343 22.6263 81.9105 24.0136 81.8502 25.3918C82.4581 25.5709 83.03 25.8587 83.5287 26.2521C85.6125 27.8935 85.992 31.1446 84.3425 33.2246L83.1366 34.7453C82.3112 35.7861 81.13 36.4448 79.8089 36.599C78.4891 36.7531 77.1865 36.3843 76.1469 35.5641C75.6465 35.1694 75.234 34.6806 74.9193 34.1318V34.1318ZM72.7575 31.0652C73.0774 31.3162 73.4756 31.4301 73.8801 31.3829C74.2846 31.3356 74.6461 31.1346 74.8994 30.8152L75.8456 29.622L73.4546 27.737L72.5083 28.9302C72.0045 29.5672 72.1222 30.5626 72.7575 31.0652ZM70.2796 22.1302L69.0736 23.6509C68.3946 24.5055 68.5505 25.8408 69.4086 26.5203C69.6847 26.7382 70.0132 26.8735 70.3603 26.9286L73.7724 22.6258C73.6385 22.3001 73.4309 22.0125 73.1533 21.7948C72.7261 21.4578 72.1906 21.3055 71.6479 21.3688C71.1051 21.4322 70.6191 21.7037 70.2796 22.1302V22.1302ZM78.3604 23.9999C78.0405 23.7489 77.6423 23.635 77.2378 23.6822C76.8333 23.7294 76.4718 23.9305 76.2185 24.2499L75.2723 25.4431L77.6633 27.3281L78.6096 26.1349C78.8616 25.8171 78.9758 25.4183 78.9288 25.0163C78.8803 24.613 78.6789 24.2525 78.3604 23.9999V23.9999ZM80.8383 32.9348L82.0443 31.4141C82.7233 30.5596 82.5674 29.2243 81.7093 28.5447C81.4332 28.3269 81.1047 28.1916 80.7576 28.1365L77.3455 32.4392C77.4794 32.7649 77.687 33.0526 77.9646 33.2703C78.3918 33.6073 78.9273 33.7596 79.47 33.6962C80.0128 33.6329 80.4988 33.3614 80.8383 32.9348V32.9348Z" fill="#D1C9D8"/>
<path d="M67.3775 44.0001C67.6456 44.8991 68.7204 47.9497 63.9027 51.7358C59.0849 55.5219 59.4432 58.9391 59.8453 60.2876" stroke="#D1C9D8" stroke-width="3" stroke-linecap="round"/>
<path d="M90.2315 46.6048C89.8981 47.7603 88.9183 51.7878 82.0555 52.8115C75.1926 53.8352 73.3188 57.8003 72.8187 59.5335" stroke="#D1C9D8" stroke-width="3" stroke-linecap="round"/>
</svg>
